[gd_resource type="TileSet" load_steps=7 format=3 uid="uid://b66iu57esb1sn"]

[ext_resource type="Texture2D" uid="uid://6mcnk13im2yv" path="res://Assets/Nivel/GreyTileSet.png" id="1"]

[sub_resource type="TileSetAtlasSource" id="TileSetAtlasSource_pgvwm"]
texture = ExtResource("1")

[sub_resource type="TileSetAtlasSource" id="TileSetAtlasSource_1s7d7"]
texture = ExtResource("1")
margins = Vector2i(48, 0)
0:0/next_alternative_id = 8
0:0/0 = 0
0:0/0/physics_layer_0/linear_velocity = Vector2(0, 0)
0:0/0/physics_layer_0/angular_velocity = 0.0
0:0/0/physics_layer_0/polygon_0/points = PackedVector2Array(0, 0, 16, 0, 16, 16, 0, 16)
0:0/1 = 1
0:0/1/flip_h = true
0:0/1/physics_layer_0/linear_velocity = Vector2(0, 0)
0:0/1/physics_layer_0/angular_velocity = 0.0
0:0/1/physics_layer_0/polygon_0/points = PackedVector2Array(0, 0, 16, 0, 16, 16, 0, 16)
0:0/2 = 2
0:0/2/flip_v = true
0:0/2/physics_layer_0/linear_velocity = Vector2(0, 0)
0:0/2/physics_layer_0/angular_velocity = 0.0
0:0/2/physics_layer_0/polygon_0/points = PackedVector2Array(0, 0, 16, 0, 16, 16, 0, 16)
0:0/3 = 3
0:0/3/flip_h = true
0:0/3/flip_v = true
0:0/3/physics_layer_0/linear_velocity = Vector2(0, 0)
0:0/3/physics_layer_0/angular_velocity = 0.0
0:0/3/physics_layer_0/polygon_0/points = PackedVector2Array(0, 0, 16, 0, 16, 16, 0, 16)
0:0/4 = 4
0:0/4/transpose = true
0:0/4/physics_layer_0/linear_velocity = Vector2(0, 0)
0:0/4/physics_layer_0/angular_velocity = 0.0
0:0/4/physics_layer_0/polygon_0/points = PackedVector2Array(0, 0, 16, 0, 16, 16, 0, 16)
0:0/5 = 5
0:0/5/flip_h = true
0:0/5/transpose = true
0:0/5/physics_layer_0/linear_velocity = Vector2(0, 0)
0:0/5/physics_layer_0/angular_velocity = 0.0
0:0/5/physics_layer_0/polygon_0/points = PackedVector2Array(0, 0, 16, 0, 16, 16, 0, 16)
0:0/6 = 6
0:0/6/flip_v = true
0:0/6/transpose = true
0:0/6/physics_layer_0/linear_velocity = Vector2(0, 0)
0:0/6/physics_layer_0/angular_velocity = 0.0
0:0/6/physics_layer_0/polygon_0/points = PackedVector2Array(0, 0, 16, 0, 16, 16, 0, 16)
0:0/7 = 7
0:0/7/flip_h = true
0:0/7/flip_v = true
0:0/7/transpose = true
0:0/7/physics_layer_0/linear_velocity = Vector2(0, 0)
0:0/7/physics_layer_0/angular_velocity = 0.0
0:0/7/physics_layer_0/polygon_0/points = PackedVector2Array(0, 0, 16, 0, 16, 16, 0, 16)

[sub_resource type="TileSetAtlasSource" id="TileSetAtlasSource_lwq5t"]
texture = ExtResource("1")

[sub_resource type="TileSetAtlasSource" id="TileSetAtlasSource_ykihx"]
texture = ExtResource("1")

[sub_resource type="TileSetAtlasSource" id="TileSetAtlasSource_ca6ti"]
texture = ExtResource("1")

[resource]
physics_layer_0/collision_layer = 1
sources/0 = SubResource("TileSetAtlasSource_pgvwm")
sources/1 = SubResource("TileSetAtlasSource_1s7d7")
sources/2 = SubResource("TileSetAtlasSource_lwq5t")
sources/3 = SubResource("TileSetAtlasSource_ykihx")
sources/4 = SubResource("TileSetAtlasSource_ca6ti")
